{
  "formatVersion": 1,
  "database": {
    "version": 1,
    "identityHash": "b8f5ac6f728cd6b68d005fbd37da2ce9",
    "entities": [
      {
        "tableName": "Post",
        "createSql": "CREATE TABLE IF NOT EXISTS `${TABLE_NAME}` (`id` TEXT NOT NULL, `createdAt` TEXT NOT NULL, `content` TEXT NOT NULL, `comments` INTEGER NOT NULL, `likes` INTEGER NOT NULL, `media` TEXT NOT NULL, `user` TEXT NOT NULL, PRIMARY KEY(`id`))",
        "fields": [
          {
            "fieldPath": "id",
            "columnName": "id",
            "affinity": "TEXT",
            "notNull": true
          },
          {
            "fieldPath": "createdAt",
            "columnName": "createdAt",
            "affinity": "TEXT",
            "notNull": true
          },
          {
            "fieldPath": "content",
            "columnName": "content",
            "affinity": "TEXT",
            "notNull": true
          },
          {
            "fieldPath": "comments",
            "columnName": "comments",
            "affinity": "INTEGER",
            "notNull": true
          },
          {
            "fieldPath": "likes",
            "columnName": "likes",
            "affinity": "INTEGER",
            "notNull": true
          },
          {
            "fieldPath": "media",
            "columnName": "media",
            "affinity": "TEXT",
            "notNull": true
          },
          {
            "fieldPath": "user",
            "columnName": "user",
            "affinity": "TEXT",
            "notNull": true
          }
        ],
        "primaryKey": {
          "columnNames": [
            "id"
          ],
          "autoGenerate": false
        },
        "indices": [],
        "foreignKeys": []
      }
    ],
    "setupQueries": [
      "CREATE TABLE IF NOT EXISTS room_master_table (id INTEGER PRIMARY KEY,identity_hash TEXT)",
      "INSERT OR REPLACE INTO room_master_table (id,identity_hash) VALUES(42, \"b8f5ac6f728cd6b68d005fbd37da2ce9\")"
    ]
  }
}